%YAML 1.1
%TAG !u! tag:unity3d.com,2011:
--- !u!114 &1551898361
MonoBehaviour:
  m_ObjectHideFlags: 0
  m_CorrespondingSourceObject: {fileID: 0}
  m_PrefabInstance: {fileID: 0}
  m_PrefabAsset: {fileID: 0}
  m_GameObject: {fileID: 15056386174341654}
  m_Enabled: 1
  m_EditorHideFlags: 0
  m_Script: {fileID: 11500000, guid: f14923dd75b930b4c93a8df314fa5913, type: 3}
  m_Name: 
  m_EditorClassIdentifier: 
  xvalue: 0
  yvalue: 0
  zvalue: 0.5
--- !u!1001 &13851423764294198
PrefabInstance:
  m_ObjectHideFlags: 0
  serializedVersion: 2
  m_Modification:
    m_TransformParent: {fileID: 0}
    m_Modifications:
    - target: {fileID: 1205614443198496, guid: f855683b127eede4c9d170be2672ae27, type: 3}
      propertyPath: m_Name
      value: Colonial Ship
      objectReference: {fileID: 0}
    - target: {fileID: 4816409469987462, guid: f855683b127eede4c9d170be2672ae27, type: 3}
      propertyPath: m_LocalPosition.x
      value: 0.854
      objectReference: {fileID: 0}
    - target: {fileID: 4816409469987462, guid: f855683b127eede4c9d170be2672ae27, type: 3}
      propertyPath: m_LocalPosition.y
      value: 0.025
      objectReference: {fileID: 0}
    - target: {fileID: 4816409469987462, guid: f855683b127eede4c9d170be2672ae27, type: 3}
      propertyPath: m_LocalPosition.z
      value: -0.003
      objectReference: {fileID: 0}
    - target: {fileID: 4816409469987462, guid: f855683b127eede4c9d170be2672ae27, type: 3}
      propertyPath: m_LocalRotation.x
      value: -0
      objectReference: {fileID: 0}
    - target: {fileID: 4816409469987462, guid: f855683b127eede4c9d170be2672ae27, type: 3}
      propertyPath: m_LocalRotation.y
      value: -0.7071068
      objectReference: {fileID: 0}
    - target: {fileID: 4816409469987462, guid: f855683b127eede4c9d170be2672ae27, type: 3}
      propertyPath: m_LocalRotation.z
      value: -0
      objectReference: {fileID: 0}
    - target: {fileID: 4816409469987462, guid: f855683b127eede4c9d170be2672ae27, type: 3}
      propertyPath: m_LocalRotation.w
      value: 0.7071068
      objectReference: {fileID: 0}
    - target: {fileID: 4816409469987462, guid: f855683b127eede4c9d170be2672ae27, type: 3}
      propertyPath: m_RootOrder
      value: 0
      objectReference: {fileID: 0}
    - target: {fileID: 4816409469987462, guid: f855683b127eede4c9d170be2672ae27, type: 3}
      propertyPath: m_LocalEulerAnglesHint.x
      value: 0
      objectReference: {fileID: 0}
    - target: {fileID: 4816409469987462, guid: f855683b127eede4c9d170be2672ae27, type: 3}
      propertyPath: m_LocalEulerAnglesHint.y
      value: 90
      objectReference: {fileID: 0}
    - target: {fileID: 4816409469987462, guid: f855683b127eede4c9d170be2672ae27, type: 3}
      propertyPath: m_LocalEulerAnglesHint.z
      value: 0
      objectReference: {fileID: 0}
    - target: {fileID: 4816409469987462, guid: f855683b127eede4c9d170be2672ae27, type: 3}
      propertyPath: m_LocalScale.x
      value: 0.0049420255
      objectReference: {fileID: 0}
    - target: {fileID: 4816409469987462, guid: f855683b127eede4c9d170be2672ae27, type: 3}
      propertyPath: m_LocalScale.y
      value: 0.0049420227
      objectReference: {fileID: 0}
    - target: {fileID: 4816409469987462, guid: f855683b127eede4c9d170be2672ae27, type: 3}
      propertyPath: m_LocalScale.z
      value: 0.0049420255
      objectReference: {fileID: 0}
    m_RemovedComponents: []
  m_SourcePrefab: {fileID: 100100000, guid: f855683b127eede4c9d170be2672ae27, type: 3}
--- !u!1 &15056386174341654 stripped
GameObject:
  m_CorrespondingSourceObject: {fileID: 1205614443198496, guid: f855683b127eede4c9d170be2672ae27,
    type: 3}
  m_PrefabInstance: {fileID: 13851423764294198}
  m_PrefabAsset: {fileID: 0}
